…
city_df = 
  homicide_df %>%
  group_by(city_state) %>% 
  summarize(
   homicide_total = n(),
   homicide_unsolved = sum((disposition == c("Open/No arrest", "Closed without arrest")))
  ) %>% 
  arrange(desc(homicide_total))

city_df
```

    ## # A tibble: 51 × 3
    ##    city_state       homicide_total homicide_unsolved
    ##    <chr>                     <int>             <int>
    ##  1 Chicago, IL                5535              2027
    ##  2 Philadelphia, PA           3037               676
    ##  3 Houston, TX                2942               788
    ##  4 Baltimore, MD              2827               919
    ##  5 Detroit, MI                2519               743
    ##  6 Los Angeles, CA            2257               555
    ##  7 St. Louis, MO              1677               456
    ##  8 Dallas, TX                 1567               373
    ##  9 Memphis, TN                1514               224
    ## 10 New Orleans, LA            1434               451
    ## # … with 41 more rows
…
### Run \`prop.test’ for each city

``` r
result_df = city_df %>% 
  mutate(
    prop_test = map2(.x = homicide_unsolved, .y = homicide_total, ~ prop.test(.x, .y) %>%
                       broom::tidy())
    ) %>% 
  unnest() %>%
  select(city_state, estimate, conf.low, conf.high)

result_df
```

    ## # A tibble: 51 × 4
    ##    city_state       estimate conf.low conf.high
    ##    <chr>               <dbl>    <dbl>     <dbl>
    ##  1 Chicago, IL         0.366    0.354     0.379
    ##  2 Philadelphia, PA    0.223    0.208     0.238
    ##  3 Houston, TX         0.268    0.252     0.284
    ##  4 Baltimore, MD       0.325    0.308     0.343
    ##  5 Detroit, MI         0.295    0.277     0.313
    ##  6 Los Angeles, CA     0.246    0.228     0.264
    ##  7 St. Louis, MO       0.272    0.251     0.294
    ##  8 Dallas, TX          0.238    0.217     0.260
    ##  9 Memphis, TN         0.148    0.131     0.167
    ## 10 New Orleans, LA     0.315    0.291     0.339
    ## # … with 41 more rows
…
``` r
base_df = 
  expand.grid(
    sample_size = 30,
    iteration = 1:5000
  ) %>%
  mutate(
    estimate_df = map(sample_size, sim_mean)
  ) %>%
  unnest(estimate_df)

base_df
```

    ## # A tibble: 5,000 × 4
    ##    sample_size iteration estimate p.value
    ##          <dbl>     <int>    <dbl>   <dbl>
    ##  1          30         1 -0.182     0.836
    ##  2          30         2  0.669     0.487
    ##  3          30         3  0.727     0.435
    ##  4          30         4  0.00976   0.992
    ##  5          30         5  0.566     0.492
    ##  6          30         6  0.713     0.425
    ##  7          30         7  0.965     0.299
    ##  8          30         8 -0.0847    0.939
    ##  9          30         9 -0.00920   0.992
    ## 10          30        10  0.0337    0.970
    ## # … with 4,990 more rows
…
